         Abhishek    Mahak 
17-06-21 P           P
18-06-21 P           P
21-06-21 P           P
22-06-21 A           P
23-06-21 P           P
24-06-21 P           P
25-06-21 A           P
28-06-21 P           P
02-07-21 P	     P
05-07-21 P           A
